projects/lab06/aias_lab6.Hw3.PRNGTest251108445/PRNG.vcd
$version Generated by VerilatedVcd $end
$date Sun Apr 16 21:55:47 2023
 $end
$timescale   1ns $end

 $scope module TOP $end
  $var wire  1 E! clock $end
  $var wire  1 U! io_gen $end
  $var wire  4 ]! io_puzzle_0 [3:0] $end
  $var wire  4 e! io_puzzle_1 [3:0] $end
  $var wire  4 m! io_puzzle_2 [3:0] $end
  $var wire  4 u! io_puzzle_3 [3:0] $end
  $var wire  1 }! io_ready $end
  $var wire  1 M! reset $end
  $scope module PRNG $end
   $var wire  1 E! clock $end
   $var wire  8 ; cnt [7:0] $end
   $var wire  2 C cnt2 [1:0] $end
   $var wire  1 U! io_gen $end
   $var wire  4 ]! io_puzzle_0 [3:0] $end
   $var wire  4 e! io_puzzle_1 [3:0] $end
   $var wire  4 m! io_puzzle_2 [3:0] $end
   $var wire  4 u! io_puzzle_3 [3:0] $end
   $var wire  1 }! io_ready $end
   $var wire  1 E! lfsrInst_clock $end
   $var wire  4 + lfsrInst_io_rndNum [3:0] $end
   $var wire  1 # lfsrInst_io_seed_valid $end
   $var wire  1 M! lfsrInst_reset $end
   $var wire  4 K lfsr_0 [3:0] $end
   $var wire  4 S lfsr_1 [3:0] $end
   $var wire  4 [ lfsr_2 [3:0] $end
   $var wire  4 c lfsr_3 [3:0] $end
   $var wire  4 3 myReg [3:0] $end
   $var wire  1 M! reset $end
   $var wire  1 k state $end
   $scope module lfsrInst $end
    $var wire  1 E! clock $end
    $var wire  2 =! hi [1:0] $end
    $var wire  4 + io_rndNum [3:0] $end
    $var wire  1 # io_seed_valid $end
    $var wire  2 5! lo [1:0] $end
    $var wire  1 M! reset $end
    $var wire  1 s shiftReg_0 $end
    $var wire  1 { shiftReg_1 $end
    $var wire  1 %! shiftReg_2 $end
    $var wire  1 -! shiftReg_3 $end
   $upscope $end
  $upscope $end
 $upscope $end
$enddefinitions $end


#0
1#
b0000 +
b0000 3
b00000000 ;
b00 C
b0000 K
b0000 S
b0000 [
b0000 c
0k
0s
0{
0%!
0-!
b00 5!
b00 =!
0E!
1M!
0U!
b0000 ]!
b0000 e!
b0000 m!
b0000 u!
0}!
#1
1E!
#2
0E!
#3
1E!
#4
0E!
#5
1E!
#6
0E!
#7
1E!
#8
0E!
#9
1E!
#10
0E!
0M!
#11
0#
b0001 +
b00000001 ;
1s
b01 5!
1E!
#12
0E!
#13
b1100 +
b0001 3
b00000010 ;
b01 C
0s
1%!
1-!
b00 5!
b11 =!
1E!
#14
0E!
#15
b0110 +
b1100 3
b00000011 ;
b10 C
b0001 S
1{
0-!
b10 5!
b01 =!
1E!
#16
0E!
#17
b0011 +
b0110 3
b00000100 ;
b11 C
b0010 [
1s
0%!
b11 5!
b00 =!
1E!
#18
0E!
#19
b1101 +
b0011 3
b00000101 ;
b00 C
b0110 c
1k
0{
1%!
1-!
b01 5!
b11 =!
1E!
1}!
#20
0E!
#21
b1010 +
0s
1{
0%!
b10 5!
b10 =!
1E!
#22
0E!
1U!
b0001 e!
b0010 m!
b0110 u!
0}!
#23
b0101 +
b0000 S
b0000 [
b0000 c
0k
1s
0{
1%!
0-!
b01 5!
b01 =!
1E!
b0000 e!
b0000 m!
b0000 u!
#24
0E!
0U!
#25
b1110 +
b0101 3
b00000110 ;
b01 C
b0011 K
0s
1{
1-!
b10 5!
b11 =!
1E!
#26
0E!
#27
b0111 +
b1110 3
b00000111 ;
b10 C
b0101 S
1s
0-!
b11 5!
b01 =!
1E!
#28
0E!
#29
b1111 +
b0111 3
b00001000 ;
b11 C
b0100 [
1-!
b11 =!
1E!
#30
0E!
#31
b1011 +
b1111 3
b00001001 ;
b00 C
b0111 c
1k
0%!
b10 =!
1E!
1}!
#32
0E!
#33
b1001 +
0{
b01 5!
1E!
#34
0E!
1U!
b0011 ]!
b0101 e!
b0100 m!
b0111 u!
0}!
#35
b1000 +
b0000 K
b0000 S
b0000 [
b0000 c
0k
0s
b00 5!
1E!
b0000 ]!
b0000 e!
b0000 m!
b0000 u!
#36
0E!
0U!
#37
b0100 +
b1000 3
b00001010 ;
b01 C
b0101 K
1%!
0-!
b01 =!
1E!
#38
0E!
#39
b0010 +
b0100 3
b00001011 ;
b10 C
b1000 S
1{
0%!
b10 5!
b00 =!
1E!
#40
0E!
#41
b0001 +
b0010 3
b00001100 ;
b11 C
b0100 [
1s
0{
b01 5!
1E!
#42
0E!
#43
b1100 +
b0001 3
b00001101 ;
b00 C
b0010 c
1k
0s
1%!
1-!
b00 5!
b11 =!
1E!
1}!
#44
0E!
#45
b0110 +
1{
0-!
b10 5!
b01 =!
1E!
#46
0E!
#47
b0011 +
1s
0%!
b11 5!
b00 =!
1E!
#48
0E!
#49
b1101 +
0{
1%!
1-!
b01 5!
b11 =!
1E!
#50
0E!
#51
b1010 +
0s
1{
0%!
b10 5!
b10 =!
1E!
#52
0E!
#53
b0101 +
1s
0{
1%!
0-!
b01 5!
b01 =!
1E!
#54
0E!
#55
b1110 +
0s
1{
1-!
b10 5!
b11 =!
1E!
#56
0E!
#57
b0111 +
1s
0-!
b11 5!
b01 =!
1E!
#58
0E!
1U!
b0101 ]!
b1000 e!
b0100 m!
b0010 u!
0}!
#59
b1111 +
b0000 K
b0000 S
b0000 [
b0000 c
0k
1-!
b11 =!
1E!
b0000 ]!
b0000 e!
b0000 m!
b0000 u!
#60
0E!
0U!
#61
b1011 +
b1111 3
b00001110 ;
b01 C
b0001 K
0%!
b10 =!
1E!
#62
0E!
#63
b1001 +
b1011 3
b00001111 ;
b10 C
b0101 S
0{
b01 5!
1E!
#64
0E!
#65
b1000 +
b1001 3
b00010000 ;
b11 C
b0001 [
0s
b00 5!
1E!
#66
0E!
#67
b0100 +
b1000 3
b00010001 ;
b00 C
b1001 c
1k
1%!
0-!
b01 =!
1E!
1}!
#68
0E!
#69
b0010 +
b0010 K
b0010 [
1{
0%!
b10 5!
b00 =!
1E!
#70
0E!
#71
b0001 +
b0011 K
b0011 [
1s
0{
b01 5!
1E!
#72
0E!
#73
b1100 +
b0100 K
b0100 [
0s
1%!
1-!
b00 5!
b11 =!
1E!
#74
0E!
#75
b0110 +
b0101 K
b0101 [
1{
0-!
b10 5!
b01 =!
1E!
#76
0E!
#77
b0011 +
b0110 K
b0110 S
b0110 [
1s
0%!
b11 5!
b00 =!
1E!
#78
0E!
1U!
b0110 ]!
b0110 e!
b0110 m!
b1001 u!
0}!
#79
b1101 +
b0000 K
b0000 S
b0000 [
b0000 c
0k
0{
1%!
1-!
b01 5!
b11 =!
1E!
b0000 ]!
b0000 e!
b0000 m!
b0000 u!
#80
0E!
0U!
#81
b1010 +
b1101 3
b00010010 ;
b01 C
b1000 K
0s
1{
0%!
b10 5!
b10 =!
1E!
#82
0E!
#83
b0101 +
b1010 3
b00010011 ;
b10 C
b0011 S
1s
0{
1%!
0-!
b01 5!
b01 =!
1E!
#84
0E!
#85
b1110 +
b0101 3
b00010100 ;
b11 C
0s
1{
1-!
b10 5!
b11 =!
1E!
#86
0E!
#87
b0111 +
b1110 3
b00010101 ;
b00 C
b0101 c
1k
1s
0-!
b11 5!
b01 =!
1E!
1}!
#88
0E!
#89
b1111 +
1-!
b11 =!
1E!
#90
0E!
#91
b1011 +
0%!
b10 =!
1E!
#92
0E!
1U!
b1000 ]!
b0011 e!
b0101 u!
0}!
#93
b1001 +
b0000 K
b0000 S
b0000 c
0k
0{
b01 5!
1E!
b0000 ]!
b0000 e!
b0000 u!
#94
0E!
0U!
#95
b1000 +
b1001 3
b00010110 ;
b01 C
b0100 K
0s
b00 5!
1E!
#96
0E!
#97
b0100 +
b1000 3
b00010111 ;
b10 C
b1001 S
1%!
0-!
b01 =!
1E!
#98
0E!
#99
b0010 +
b0100 3
b00011000 ;
b11 C
b1000 [
1{
0%!
b10 5!
b00 =!
1E!
#100
0E!
#101
b0001 +
b0010 3
b00011001 ;
b00 C
b0100 c
1k
1s
0{
b01 5!
1E!
1}!
#102
0E!
#103
b1100 +
b0101 K
b0101 c
0s
1%!
1-!
b00 5!
b11 =!
1E!
#104
0E!
#105
b0110 +
b0110 K
b0110 c
1{
0-!
b10 5!
b01 =!
1E!
#106
0E!
#107
b0011 +
b0111 K
b0111 c
1s
0%!
b11 5!
b00 =!
1E!
#108
0E!
#109
b1101 +
b1000 K
b1000 c
0{
1%!
1-!
b01 5!
b11 =!
1E!
#110
0E!
1U!
b1000 ]!
b1001 e!
b1000 m!
b1000 u!
0}!
#111
b1010 +
b0000 K
b0000 S
b0000 [
b0000 c
0k
0s
1{
0%!
b10 5!
b10 =!
1E!
b0000 ]!
b0000 e!
b0000 m!
b0000 u!
#112
0E!
0U!
#113
b0101 +
b1010 3
b00011010 ;
b01 C
b0010 K
1s
0{
1%!
0-!
b01 5!
b01 =!
1E!
#114
0E!
#115
b1110 +
b0101 3
b00011011 ;
b10 C
0s
1{
1-!
b10 5!
b11 =!
1E!
#116
0E!
#117
b0111 +
b1110 3
b00011100 ;
b11 C
b0101 [
1s
0-!
b11 5!
b01 =!
1E!
#118
0E!
#119
b1111 +
b0111 3
b00011101 ;
b00 C
b0100 c
1k
1-!
b11 =!
1E!
1}!
#120
0E!
#121
b1011 +
0%!
b10 =!
1E!
#122
0E!
#123
b1001 +
0{
b01 5!
1E!
#124
0E!
#125
b1000 +
0s
b00 5!
1E!
#126
0E!
#127
b0100 +
1%!
0-!
b01 =!
1E!
#128
0E!
#129
b0010 +
1{
0%!
b10 5!
b00 =!
1E!
#130
0E!
#131
b0001 +
1s
0{
b01 5!
1E!
#132
0E!
#133
b1100 +
0s
1%!
1-!
b00 5!
b11 =!
1E!
#134
0E!
#135
b0110 +
1{
0-!
b10 5!
b01 =!
1E!
#136
0E!
#137
b0011 +
1s
0%!
b11 5!
b00 =!
1E!
#138
0E!
#139
b1101 +
0{
1%!
1-!
b01 5!
b11 =!
1E!
#140
0E!
1U!
b0010 ]!
b0101 m!
b0100 u!
0}!
#141
b1010 +
b0000 K
b0000 [
b0000 c
0k
0s
1{
0%!
b10 5!
b10 =!
1E!
b0000 ]!
b0000 m!
b0000 u!
#142
0E!
0U!
#143
b0101 +
b1010 3
b00011110 ;
b01 C
b0111 K
1s
0{
1%!
0-!
b01 5!
b01 =!
1E!
#144
0E!
#145
b1110 +
b0101 3
b00011111 ;
b10 C
0s
1{
1-!
b10 5!
b11 =!
1E!
#146
0E!
#147
b0111 +
b1110 3
b00100000 ;
b11 C
b0101 [
1s
0-!
b11 5!
b01 =!
1E!
#148
0E!
#149
b1111 +
b0111 3
b00100001 ;
b00 C
b0100 c
1k
1-!
b11 =!
1E!
1}!
#150
0E!
#151
b1011 +
0%!
b10 =!
1E!
#152
0E!
#153
b1001 +
0{
b01 5!
1E!
#154
0E!
#155
b1000 +
0s
b00 5!
1E!
#156
0E!
#157
b0100 +
1%!
0-!
b01 =!
1E!
#158
0E!
#159
b0010 +
1{
0%!
b10 5!
b00 =!
1E!
#160
0E!
#161
b0001 +
1s
0{
b01 5!
1E!
#162
0E!
#163
b1100 +
0s
1%!
1-!
b00 5!
b11 =!
1E!
#164
0E!
1U!
b0111 ]!
b0101 m!
b0100 u!
0}!
#165
b0110 +
b0000 K
b0000 [
b0000 c
0k
1{
0-!
b10 5!
b01 =!
1E!
b0000 ]!
b0000 m!
b0000 u!
#166
0E!
0U!
#167
b0011 +
b0110 3
b00100010 ;
b01 C
b0111 K
1s
0%!
b11 5!
b00 =!
1E!
#168
0E!
#169
b1101 +
b0011 3
b00100011 ;
b10 C
b0110 S
0{
1%!
1-!
b01 5!
b11 =!
1E!
#170
0E!
#171
b1010 +
b1101 3
b00100100 ;
b11 C
b0011 [
0s
1{
0%!
b10 5!
b10 =!
1E!
#172
0E!
#173
b0101 +
b1010 3
b00100101 ;
b00 C
b0011 c
1k
1s
0{
1%!
0-!
b01 5!
b01 =!
1E!
1}!
#174
0E!
#175
b1110 +
b0100 [
b0100 c
0s
1{
1-!
b10 5!
b11 =!
1E!
#176
0E!
#177
b0111 +
b0101 [
b0101 c
1s
0-!
b11 5!
b01 =!
1E!
#178
0E!
#179
b1111 +
b0110 [
b0110 c
1-!
b11 =!
1E!
#180
0E!
1U!
b0111 ]!
b0110 e!
b0110 m!
b0110 u!
0}!
#181
b1011 +
b0000 K
b0000 S
b0000 [
b0000 c
0k
0%!
b10 =!
1E!
b0000 ]!
b0000 e!
b0000 m!
b0000 u!
#182
0E!
0U!
#183
b1001 +
b1011 3
b00100110 ;
b01 C
0{
b01 5!
1E!
#184
0E!
#185
b1000 +
b1001 3
b00100111 ;
b10 C
b0001 S
0s
b00 5!
1E!
#186
0E!
#187
b0100 +
b1000 3
b00101000 ;
b11 C
b1001 [
1%!
0-!
b01 =!
1E!
#188
0E!
#189
b0010 +
b0100 3
b00101001 ;
b00 C
b1000 c
1k
1{
0%!
b10 5!
b00 =!
1E!
1}!
#190
0E!
#191
b0001 +
1s
0{
b01 5!
1E!
#192
0E!
#193
b1100 +
0s
1%!
1-!
b00 5!
b11 =!
1E!
#194
0E!
#195
b0110 +
1{
0-!
b10 5!
b01 =!
1E!
#196
0E!
1U!
b0001 e!
b1001 m!
b1000 u!
0}!
#197
b0011 +
b0000 S
b0000 [
b0000 c
0k
1s
0%!
b11 5!
b00 =!
1E!
b0000 e!
b0000 m!
b0000 u!
#198
0E!
0U!
#199
b1101 +
b0011 3
b00101010 ;
b01 C
b0100 K
0{
1%!
1-!
b01 5!
b11 =!
1E!
#200
0E!
#201
b1010 +
b1101 3
b00101011 ;
b10 C
b0011 S
0s
1{
0%!
b10 5!
b10 =!
1E!
#202
0E!
#203
b0101 +
b1010 3
b00101100 ;
b11 C
b0011 [
1s
0{
1%!
0-!
b01 5!
b01 =!
1E!
#204
0E!
#205
b1110 +
b0101 3
b00101101 ;
b00 C
1k
0s
1{
1-!
b10 5!
b11 =!
1E!
1}!
#206
0E!
#207
b0111 +
b0100 S
b0100 [
1s
0-!
b11 5!
b01 =!
1E!
#208
0E!
#209
b1111 +
b0101 K
b0101 S
b0101 [
1-!
b11 =!
1E!
#210
0E!
1U!
b0101 ]!
b0101 e!
b0101 m!
0}!
#211
b1011 +
b0000 K
b0000 S
b0000 [
0k
0%!
b10 =!
1E!
b0000 ]!
b0000 e!
b0000 m!
#212
0E!
0U!
#213
b1001 +
b1011 3
b00101110 ;
b01 C
b0101 K
0{
b01 5!
1E!
#214
0E!
#215
b1000 +
b1001 3
b00101111 ;
b10 C
b0001 S
0s
b00 5!
1E!
#216
0E!
#217
b0100 +
b1000 3
b00110000 ;
b11 C
b1001 [
1%!
0-!
b01 =!
1E!
#218
0E!
#219
b0010 +
b0100 3
b00110001 ;
b00 C
b1000 c
1k
1{
0%!
b10 5!
b00 =!
1E!
1}!
#220
0E!
#221
b0001 +
1s
0{
b01 5!
1E!
#222
0E!
#223
b1100 +
0s
1%!
1-!
b00 5!
b11 =!
1E!
#224
0E!
#225
b0110 +
1{
0-!
b10 5!
b01 =!
1E!
#226
0E!
#227
b0011 +
1s
0%!
b11 5!
b00 =!
1E!
#228
0E!
#229
b1101 +
0{
1%!
1-!
b01 5!
b11 =!
1E!
#230
0E!
#231
b1010 +
0s
1{
0%!
b10 5!
b10 =!
1E!
#232
0E!
#233
b0101 +
1s
0{
1%!
0-!
b01 5!
b01 =!
1E!
#234
0E!
1U!
b0101 ]!
b0001 e!
b1001 m!
b1000 u!
0}!
#235
b1110 +
b0000 K
b0000 S
b0000 [
b0000 c
0k
0s
1{
1-!
b10 5!
b11 =!
1E!
b0000 ]!
b0000 e!
b0000 m!
b0000 u!
#236
0E!
0U!
#237
b0111 +
b1110 3
b00110010 ;
b01 C
b0100 K
1s
0-!
b11 5!
b01 =!
1E!
#238
0E!
#239
b1111 +
b0111 3
b00110011 ;
b10 C
b0100 S
1-!
b11 =!
1E!
#240
0E!
#241
b1011 +
b1111 3
b00110100 ;
b11 C
b0111 [
0%!
b10 =!
1E!
#242
0E!
#243
b1001 +
b1011 3
b00110101 ;
b00 C
b0101 c
1k
0{
b01 5!
1E!
1}!
#244
0E!
#245
b1000 +
b0101 K
b0101 S
0s
b00 5!
1E!
#246
0E!
#247
b0100 +
b0110 K
b0110 S
b0110 c
1%!
0-!
b01 =!
1E!
#248
0E!
#249
b0010 +
b0111 K
b0111 S
b0111 c
1{
0%!
b10 5!
b00 =!
1E!
#250
0E!
#251
b0001 +
b1000 K
b1000 S
b1000 [
b1000 c
1s
0{
b01 5!
1E!
#252
0E!
#253
b1100 +
b1001 K
b1001 S
b1001 [
b1001 c
0s
1%!
1-!
b00 5!
b11 =!
1E!
#254
0E!
#255
b0110 +
b1010 K
b1010 S
b1010 [
b1010 c
1{
0-!
b10 5!
b01 =!
1E!
#256
0E!
1U!
b1010 ]!
b1010 e!
b1010 m!
b1010 u!
0}!
#257
b0011 +
b0000 K
b0000 S
b0000 [
b0000 c
0k
1s
0%!
b11 5!
b00 =!
1E!
b0000 ]!
b0000 e!
b0000 m!
b0000 u!
#258
0E!
0U!
#259
b1101 +
b0011 3
b00110110 ;
b01 C
b0001 K
0{
1%!
1-!
b01 5!
b11 =!
1E!
#260
0E!
#261
b1010 +
b1101 3
b00110111 ;
b10 C
b0011 S
0s
1{
0%!
b10 5!
b10 =!
1E!
#262
0E!
#263
b0101 +
b1010 3
b00111000 ;
b11 C
b0011 [
1s
0{
1%!
0-!
b01 5!
b01 =!
1E!
#264
0E!
#265
b1110 +
b0101 3
b00111001 ;
b00 C
1k
0s
1{
1-!
b10 5!
b11 =!
1E!
1}!
#266
0E!
#267
b0111 +
b0100 S
b0100 [
1s
0-!
b11 5!
b01 =!
1E!
#268
0E!
#269
b1111 +
b0101 S
b0101 [
1-!
b11 =!
1E!
#270
0E!
#271
b1011 +
b0110 S
b0110 [
0%!
b10 =!
1E!
#272
0E!
1U!
b0001 ]!
b0110 e!
b0110 m!
0}!
#273
b1001 +
b0000 K
b0000 S
b0000 [
0k
0{
b01 5!
1E!
b0000 ]!
b0000 e!
b0000 m!
#274
0E!
0U!
#275
b1000 +
b1001 3
b00111010 ;
b01 C
b0101 K
0s
b00 5!
1E!
#276
0E!
#277
b0100 +
b1000 3
b00111011 ;
b10 C
b1001 S
1%!
0-!
b01 =!
1E!
#278
0E!
#279
b0010 +
b0100 3
b00111100 ;
b11 C
b1000 [
1{
0%!
b10 5!
b00 =!
1E!
#280
0E!
#281
b0001 +
b0010 3
b00111101 ;
b00 C
b0100 c
1k
1s
0{
b01 5!
1E!
1}!
#282
0E!
#283
b1100 +
0s
1%!
1-!
b00 5!
b11 =!
1E!
#284
0E!
1U!
b0101 ]!
b1001 e!
b1000 m!
b0100 u!
0}!
#285
b0110 +
b0000 K
b0000 S
b0000 [
b0000 c
0k
1{
0-!
b10 5!
b01 =!
1E!
b0000 ]!
b0000 e!
b0000 m!
b0000 u!
#286
0E!
0U!
#287
b0011 +
b0110 3
b00111110 ;
b01 C
b0010 K
1s
0%!
b11 5!
b00 =!
1E!
#288
0E!
#289
b1101 +
b0011 3
b00111111 ;
b10 C
b0110 S
0{
1%!
1-!
b01 5!
b11 =!
1E!
#290
0E!
#291
b1010 +
b1101 3
b01000000 ;
b11 C
b0011 [
0s
1{
0%!
b10 5!
b10 =!
1E!
#292
0E!
#293
b0101 +
b1010 3
b01000001 ;
b00 C
b0011 c
1k
1s
0{
1%!
0-!
b01 5!
b01 =!
1E!
1}!
#294
0E!
#295
b1110 +
b0100 [
b0100 c
0s
1{
1-!
b10 5!
b11 =!
1E!
#296
0E!
1U!
b0010 ]!
b0110 e!
b0100 m!
b0100 u!
0}!
#297
b0111 +
b0000 K
b0000 S
b0000 [
b0000 c
0k
1s
0-!
b11 5!
b01 =!
1E!
b0000 ]!
b0000 e!
b0000 m!
b0000 u!
#298
0E!
0U!
#299
b1111 +
b0111 3
b01000010 ;
b01 C
1-!
b11 =!
1E!
#300
0E!
#301
b1011 +
b1111 3
b01000011 ;
b10 C
b0111 S
0%!
b10 =!
1E!
#302
0E!
#303
b1001 +
b1011 3
b01000100 ;
b11 C
b0101 [
0{
b01 5!
1E!
#304
0E!
#305
b1000 +
b1001 3
b01000101 ;
b00 C
b0001 c
1k
0s
b00 5!
1E!
1}!
#306
0E!
#307
b0100 +
1%!
0-!
b01 =!
1E!
#308
0E!
#309
b0010 +
1{
0%!
b10 5!
b00 =!
1E!
#310
0E!
#311
b0001 +
1s
0{
b01 5!
1E!
#312
0E!
#313
b1100 +
0s
1%!
1-!
b00 5!
b11 =!
1E!
#314
0E!
1U!
b0111 e!
b0101 m!
b0001 u!
0}!
#315
b0110 +
b0000 S
b0000 [
b0000 c
0k
1{
0-!
b10 5!
b01 =!
1E!
b0000 e!
b0000 m!
b0000 u!
#316
0E!
0U!
#317
b0011 +
b0110 3
b01000110 ;
b01 C
b1001 K
1s
0%!
b11 5!
b00 =!
1E!
#318
0E!
#319
b1101 +
b0011 3
b01000111 ;
b10 C
b0110 S
0{
1%!
1-!
b01 5!
b11 =!
1E!
#320
0E!
#321
b1010 +
b1101 3
b01001000 ;
b11 C
b0011 [
0s
1{
0%!
b10 5!
b10 =!
1E!
#322
0E!
#323
b0101 +
b1010 3
b01001001 ;
b00 C
b0011 c
1k
1s
0{
1%!
0-!
b01 5!
b01 =!
1E!
1}!
#324
0E!
#325
b1110 +
b0100 [
b0100 c
0s
1{
1-!
b10 5!
b11 =!
1E!
#326
0E!
#327
b0111 +
b0101 [
b0101 c
1s
0-!
b11 5!
b01 =!
1E!
#328
0E!
#329
b1111 +
b0110 [
b0110 c
1-!
b11 =!
1E!
#330
0E!
#331
b1011 +
b0111 S
b0111 [
b0111 c
0%!
b10 =!
1E!
#332
0E!
#333
b1001 +
b1000 S
b1000 [
b1000 c
0{
b01 5!
1E!
#334
0E!
#335
b1000 +
b1001 S
b1001 [
b1001 c
0s
b00 5!
1E!
#336
0E!
#337
b0100 +
b1010 K
b1010 S
b1010 [
b1010 c
1%!
0-!
b01 =!
1E!
#338
0E!
1U!
b1010 ]!
b1010 e!
b1010 m!
b1010 u!
0}!
#339
b0010 +
b0000 K
b0000 S
b0000 [
b0000 c
0k
1{
0%!
b10 5!
b00 =!
1E!
b0000 ]!
b0000 e!
b0000 m!
b0000 u!
#340
0E!
0U!
#341
b0001 +
b0010 3
b01001010 ;
b01 C
1s
0{
b01 5!
1E!
#342
0E!
#343
b1100 +
b0001 3
b01001011 ;
b10 C
b0010 S
0s
1%!
1-!
b00 5!
b11 =!
1E!
#344
0E!
#345
b0110 +
b1100 3
b01001100 ;
b11 C
b0001 [
1{
0-!
b10 5!
b01 =!
1E!
#346
0E!
#347
b0011 +
b0110 3
b01001101 ;
b00 C
b0010 c
1k
1s
0%!
b11 5!
b00 =!
1E!
1}!
#348
0E!
#349
b1101 +
b0011 S
b0011 c
0{
1%!
1-!
b01 5!
b11 =!
1E!
#350
0E!
#351
b1010 +
b0100 S
b0100 c
0s
1{
0%!
b10 5!
b10 =!
1E!
#352
0E!
#353
b0101 +
b0101 S
b0101 c
1s
0{
1%!
0-!
b01 5!
b01 =!
1E!
#354
0E!
#355
b1110 +
b0110 S
b0110 c
0s
1{
1-!
b10 5!
b11 =!
1E!
#356
0E!
#357
b0111 +
b0111 S
b0111 c
1s
0-!
b11 5!
b01 =!
1E!
#358
0E!
#359
b1111 +
b1000 S
b1000 c
1-!
b11 =!
1E!
#360
0E!
1U!
b1000 e!
b0001 m!
b1000 u!
0}!
#361
b1011 +
b0000 S
b0000 [
b0000 c
0k
0%!
b10 =!
1E!
b0000 e!
b0000 m!
b0000 u!
#362
0E!
0U!
#363
b1001 +
b1011 3
b01001110 ;
b01 C
b0110 K
0{
b01 5!
1E!
#364
0E!
#365
b1000 +
b1001 3
b01001111 ;
b10 C
b0001 S
0s
b00 5!
1E!
#366
0E!
#367
b0100 +
b1000 3
b01010000 ;
b11 C
b1001 [
1%!
0-!
b01 =!
1E!
#368
0E!
#369
b0010 +
b0100 3
b01010001 ;
b00 C
b1000 c
1k
1{
0%!
b10 5!
b00 =!
1E!
1}!
#370
0E!
#371
b0001 +
1s
0{
b01 5!
1E!
#372
0E!
#373
b1100 +
0s
1%!
1-!
b00 5!
b11 =!
1E!
#374
0E!
#375
b0110 +
1{
0-!
b10 5!
b01 =!
1E!
#376
0E!
#377
b0011 +
1s
0%!
b11 5!
b00 =!
1E!
#378
0E!
#379
b1101 +
0{
1%!
1-!
b01 5!
b11 =!
1E!
#380
0E!
#381
b1010 +
0s
1{
0%!
b10 5!
b10 =!
1E!
#382
0E!
#383
b0101 +
1s
0{
1%!
0-!
b01 5!
b01 =!
1E!
#384
0E!
1U!
b0110 ]!
b0001 e!
b1001 m!
b1000 u!
0}!
#385
b1110 +
b0000 K
b0000 S
b0000 [
b0000 c
0k
0s
1{
1-!
b10 5!
b11 =!
1E!
b0000 ]!
b0000 e!
b0000 m!
b0000 u!
#386
0E!
0U!
#387
b0111 +
b1110 3
b01010010 ;
b01 C
b0100 K
1s
0-!
b11 5!
b01 =!
1E!
#388
0E!
#389
b1111 +
b0111 3
b01010011 ;
b10 C
b0100 S
1-!
b11 =!
1E!
#390
0E!
#391
b1011 +
b1111 3
b01010100 ;
b11 C
b0111 [
0%!
b10 =!
1E!
#392
0E!
#393
b1001 +
b1011 3
b01010101 ;
b00 C
b0101 c
1k
0{
b01 5!
1E!
1}!
#394
0E!
#395
b1000 +
b0101 K
b0101 S
0s
b00 5!
1E!
#396
0E!
#397
b0100 +
b0110 K
b0110 S
b0110 c
1%!
0-!
b01 =!
1E!
#398
0E!
#399
b0010 +
b0111 K
b0111 S
b0111 c
1{
0%!
b10 5!
b00 =!
1E!
#400
0E!
#401
b0001 +
b1000 K
b1000 S
b1000 [
b1000 c
1s
0{
b01 5!
1E!
#402
0E!
#403
b1100 +
b1001 K
b1001 S
b1001 [
b1001 c
0s
1%!
1-!
b00 5!
b11 =!
1E!
#404
0E!
#405
b0110 +
b1010 K
b1010 S
b1010 [
b1010 c
1{
0-!
b10 5!
b01 =!
1E!
#406
0E!
#407
b0011 +
b1011 K
b1011 S
b1011 [
b1011 c
1s
0%!
b11 5!
b00 =!
1E!
#408
0E!
1U!
b1011 ]!
b1011 e!
b1011 m!
b1011 u!
0}!
#409
b1101 +
b0000 K
b0000 S
b0000 [
b0000 c
0k
0{
1%!
1-!
b01 5!
b11 =!
1E!
b0000 ]!
b0000 e!
b0000 m!
b0000 u!
#410
0E!
0U!
#411
b1010 +
b1101 3
b01010110 ;
b01 C
b0001 K
0s
1{
0%!
b10 5!
b10 =!
1E!
#412
0E!
#413
b0101 +
b1010 3
b01010111 ;
b10 C
b0011 S
1s
0{
1%!
0-!
b01 5!
b01 =!
1E!
#414
0E!
#415
b1110 +
b0101 3
b01011000 ;
b11 C
0s
1{
1-!
b10 5!
b11 =!
1E!
#416
0E!
#417
b0111 +
b1110 3
b01011001 ;
b00 C
b0101 c
1k
1s
0-!
b11 5!
b01 =!
1E!
1}!
#418
0E!
#419
b1111 +
1-!
b11 =!
1E!
#420
0E!
#421
b1011 +
0%!
b10 =!
1E!
#422
0E!
#423
b1001 +
0{
b01 5!
1E!
#424
0E!
#425
b1000 +
0s
b00 5!
1E!
#426
0E!
#427
b0100 +
1%!
0-!
b01 =!
1E!
#428
0E!
#429
b0010 +
1{
0%!
b10 5!
b00 =!
1E!
#430
0E!
1U!
b0001 ]!
b0011 e!
b0101 u!
0}!
#431
b0001 +
b0000 K
b0000 S
b0000 c
0k
1s
0{
b01 5!
1E!
b0000 ]!
b0000 e!
b0000 u!
#432
0E!
0U!
#433
b1100 +
b0001 3
b01011010 ;
b01 C
b0100 K
0s
1%!
1-!
b00 5!
b11 =!
1E!
#434
0E!
#435
b0110 +
b1100 3
b01011011 ;
b10 C
b0001 S
1{
0-!
b10 5!
b01 =!
1E!
#436
0E!
#437
b0011 +
b0110 3
b01011100 ;
b11 C
b0010 [
1s
0%!
b11 5!
b00 =!
1E!
#438
0E!
#439
b1101 +
b0011 3
b01011101 ;
b00 C
b0110 c
1k
0{
1%!
1-!
b01 5!
b11 =!
1E!
1}!
#440
0E!
#441
b1010 +
0s
1{
0%!
b10 5!
b10 =!
1E!
#442
0E!
#443
b0101 +
1s
0{
1%!
0-!
b01 5!
b01 =!
1E!
#444
0E!
#445
b1110 +
0s
1{
1-!
b10 5!
b11 =!
1E!
#446
0E!
#447
b0111 +
1s
0-!
b11 5!
b01 =!
1E!
#448
0E!
#449
b1111 +
1-!
b11 =!
1E!
#450
0E!
1U!
b0100 ]!
b0001 e!
b0010 m!
b0110 u!
0}!
#451
b1011 +
b0000 K
b0000 S
b0000 [
b0000 c
0k
0%!
b10 =!
1E!
b0000 ]!
b0000 e!
b0000 m!
b0000 u!
#452
0E!
0U!
#453
b1001 +
b1011 3
b01011110 ;
b01 C
b0011 K
0{
b01 5!
1E!
#454
0E!
#455
b1000 +
b1001 3
b01011111 ;
b10 C
b0001 S
0s
b00 5!
1E!
#456
0E!
#457
b0100 +
b1000 3
b01100000 ;
b11 C
b1001 [
1%!
0-!
b01 =!
1E!
#458
0E!
#459
b0010 +
b0100 3
b01100001 ;
b00 C
b1000 c
1k
1{
0%!
b10 5!
b00 =!
1E!
1}!
#460
0E!
#461
b0001 +
1s
0{
b01 5!
1E!
#462
0E!
#463
b1100 +
0s
1%!
1-!
b00 5!
b11 =!
1E!
#464
0E!
#465
b0110 +
1{
0-!
b10 5!
b01 =!
1E!
#466
0E!
#467
b0011 +
1s
0%!
b11 5!
b00 =!
1E!
#468
0E!
#469
b1101 +
0{
1%!
1-!
b01 5!
b11 =!
1E!
#470
0E!
#471
b1010 +
0s
1{
0%!
b10 5!
b10 =!
1E!
